<svg xmlns="http://www.w3.org/2000/svg" width="22" height="25" viewBox="0 0 22 25">
  <defs>
    <style>
      .cls-1 {
        fill: #7a848e;
        fill-rule: evenodd;
      }
    </style>
  </defs>
  <path id="Forma_1" data-name="Forma 1" class="cls-1" d="M1052.61,21.942h-0.6V18.991a0.473,0.473,0,0,0-.12-0.317l-4.79-5.506v0a0.421,0.421,0,0,0-.1-0.082l-0.03-.019a0.394,0.394,0,0,0-.1-0.041,0.038,0.038,0,0,1-.02-0.008,0.565,0.565,0,0,0-.12-0.014h-11.77a0.98,0.98,0,0,0-.97.98v7.962h-0.6a1.394,1.394,0,0,0-1.39,1.4V30.63a1.394,1.394,0,0,0,1.39,1.4h0.6V37.02a0.98,0.98,0,0,0,.97.981h16.08a0.98,0.98,0,0,0,.97-0.981V32.032h0.6a1.394,1.394,0,0,0,1.39-1.4V23.344A1.394,1.394,0,0,0,1052.61,21.942Zm-17.65-7.962h11.29V19a0.488,0.488,0,0,0,.48.49h4.31v2.456h-16.08V13.98Zm9.87,13.367a1.909,1.909,0,0,1-1.58-1.712c0-.989.82-1.746,2.18-1.746a3.5,3.5,0,0,1,1.47.292l-0.29,1.058a2.727,2.727,0,0,0-1.21-.275,0.679,0.679,0,0,0-.83.559c0,0.37.32,0.533,1.07,0.817a1.834,1.834,0,0,1,1.49,1.729c0,0.972-.74,1.8-2.32,1.8a3.794,3.794,0,0,1-1.64-.353l0.27-1.084a3.306,3.306,0,0,0,1.44.362c0.6,0,.92-0.25.92-0.628C1045.8,27.8,1045.52,27.6,1044.83,27.347Zm-2.2,1.333v1.1h-3.6v-5.8h1.31v4.7h2.29Zm-7.78,1.1h-1.49l1.67-2.934-1.61-2.865h1.5l0.5,1.058c0.17,0.353.3,0.636,0.44,0.964h0.01c0.14-.37.25-0.628,0.4-0.964l0.48-1.058h1.49l-1.62,2.83,1.71,2.969h-1.51l-0.52-1.05c-0.21-.4-0.35-0.705-0.51-1.041h-0.02c-0.12.336-.26,0.637-0.44,1.041Zm16.19,6.972h-16.08V32.032h16.08v4.723Zm0.01-6.972-0.53-1.05c-0.21-.4-0.35-0.705-0.51-1.041h-0.02c-0.12.335-.26,0.637-0.44,1.041l-0.48,1.05h-1.49l1.67-2.934-1.61-2.865h1.5l0.5,1.058c0.17,0.353.3,0.636,0.44,0.964h0.02c0.13-.37.24-0.628,0.39-0.964l0.49-1.058h1.48l-1.62,2.83,1.71,2.969h-1.5Z" transform="translate(-1032 -13)"/>
</svg>
